3 Modeling | Skin Laundry Technical Assessment
…
I am going to create a STL Decomposition to decide if the data has
seasonality or a trend to it.

stl <- train %>%
  model(stl = STL(total_quantity_sold))

components(stl)

## # A dable: 911 x 8 [1D]
## # Key:     .model [1]
## # :        total_quantity_sold = trend + season_year + season_week + remainder
##    .model sale.date  total_quantity_sold trend season_week season_year remainder season_adjust
##    <chr>  <date>                   <dbl> <dbl>       <dbl>       <dbl>     <dbl>         <dbl>
##  1 stl    2022-01-02                   3  1.10      0.579        0.293    1.03           2.13 
##  2 stl    2022-01-03                   0  1.10      0.368       -0.684   -0.787          0.316
##  3 stl    2022-01-04                   1  1.10     -0.391        0.884   -0.597          0.506
##  4 stl    2022-01-05                   0  1.10     -0.296        0.134   -0.940          0.163
##  5 stl    2022-01-06                   0  1.10      0.219       -1.25    -0.0710         1.03 
##  6 stl    2022-01-07                   0  1.10     -0.0131      -0.707   -0.383          0.720
##  7 stl    2022-01-08                   1  1.10     -0.460        0.459   -0.102          1.00 
##  8 stl    2022-01-09                   0  1.10      0.561       -0.710   -0.954          0.149
##  9 stl    2022-01-10                   0  1.10      0.391       -1.34    -0.154          0.949
## 10 stl    2022-01-11                   0  1.10     -0.407       -1.14     0.448          1.55 
## # ℹ 901 more rows
…
